{
	"AssetInfoVersion": 2,
	"ShaderCodeToAssets": [
		{
			"ShaderMapHash": "ECBFC710769E7C8506086ECCDCAA1AF3BE5517D3",
			"Assets": [
				"/ControlRig/Controls/ControlRigGizmoMaterial"
			]
		},
		{
			"ShaderMapHash": "A821A200A9A1ACF2448D527CDEC9091BD90826AA",
			"Assets": [
				"/Engine/EngineDebugMaterials/DebugEditorMaterial"
			]
		},
		{
			"ShaderMapHash": "94DEB8A9F6513D3FDED89E5B403CEE58B17FB0C6",
			"Assets": [
				"/MeshModelingToolset/Materials/M_DynamicMeshComponentVtxColor"
			]
		},
		{
			"ShaderMapHash": "ED470A54428AB12FCA0209A83468D8B7DC2722AA",
			"Assets": [
				"/Engine/EngineMaterials/GizmoMaterial"
			]
		},
		{
			"ShaderMapHash": "579E0F531B69A5C6F20564F0D80A7DB64A31410F",
			"Assets": [
				"/ControlRig/Controls/ControlRigXRayMaterial"
			]
		},
		{
			"ShaderMapHash": "9C938E3E3B2DE42B356EDBF058A2B2B5D3473F0A",
			"Assets": [
				"/Engine/EngineDebugMaterials/M_SimpleUnlitTranslucent"
			]
		},
		{
			"ShaderMapHash": "E3AF56DA7568953DEB50371AFBEB96E622BB9ED3",
			"Assets": [
				"/Engine/EditorMaterials/Camera/CineMat"
			]
		},
		{
			"ShaderMapHash": "5B2B8B1FCDA69027F9E780A7FE2A42F383FAF1AA",
			"Assets": [
				"/Interchange/Materials/UnlitMaterial",
				"/Engine/EngineMaterials/RemoveSurfaceMaterial"
			]
		},
		{
			"ShaderMapHash": "280C3D31205D7AD93BF7ACB43C8140CCBC4FEECF",
			"Assets": [
				"/Engine/EditorMaterials/PhAT_NoCollisionMaterial"
			]
		},
		{
			"ShaderMapHash": "05ABD5B8476AA77665B45C4BF0B210BC2E437C64",
			"Assets": [
				"/Engine/EditorMaterials/PhAT_UnselectedMaterial"
			]
		},
		{
			"ShaderMapHash": "BC63854236D268C38E5A5F0973CECD6DC2A52134",
			"Assets": [
				"/Engine/EngineDebugMaterials/DebugMeshMaterial"
			]
		},
		{
			"ShaderMapHash": "4C7B22392BD411EFB819BE20B013EDAC701B2D31",
			"Assets": [
				"/Engine/EditorLandscapeResources/SplineEditorMeshMat"
			]
		},
		{
			"ShaderMapHash": "C7C12F1E91B789D5BDAC06249A99EC9F3DB7E02D",
			"Assets": [
				"/Engine/VREditor/TransformGizmo/Xray"
			]
		},
		{
			"ShaderMapHash": "CB23E0267F8CB72EDF33305A9A40F656AA753B1E",
			"Assets": [
				"/Engine/VREditor/TransformGizmo/Main"
			]
		},
		{
			"ShaderMapHash": "37FFC7007C37BB4B0CC57977CB8041940796F35A",
			"Assets": [
				"/Engine/VREditor/TransformGizmo/TranslucentTransformGizmoMaterial"
			]
		},
		{
			"ShaderMapHash": "C3744E6B30244C292C44ABD295BB4255518A2D65",
			"Assets": [
				"/Engine/EngineMaterials/DefaultLightFunctionMaterial"
			]
		},
		{
			"ShaderMapHash": "C12F212B73993622B0F2598C9A82C4BA7C62A10C",
			"Assets": [
				"/Engine/EngineMaterials/FlattenMaterial_WS_Normal_VT"
			]
		},
		{
			"ShaderMapHash": "37A893D34E7F21E602A12DB2979E971D751F7480",
			"Assets": [
				"/Engine/EngineMaterials/M_InvalidLightmapSettings"
			]
		},
		{
			"ShaderMapHash": "7CE2D92FB51010E26803314E33649E45D203F3EF",
			"Assets": [
				"/Engine/EngineMaterials/EmissiveMeshMaterial"
			]
		},
		{
			"ShaderMapHash": "ED0C03FFCAB6E3B021D8CB15C00E664D0B962EA7",
			"Assets": [
				"/ControlRig/M_Manip"
			]
		},
		{
			"ShaderMapHash": "A99E425BA44E39389DBBF31010E970F95FBD4B48",
			"Assets": [
				"/Paper2D/DefaultSpriteMaterial"
			]
		},
		{
			"ShaderMapHash": "37A03656098B716CAE7D24202AA7113A149E02E2",
			"Assets": [
				"/Engine/EngineDebugMaterials/M_VolumeRenderSphereTracePP"
			]
		},
		{
			"ShaderMapHash": "CA18626C48BDB7F6DE49D6AF7172C4163B6E99DE",
			"Assets": [
				"/Engine/EngineMaterials/FlattenMaterial_VT",
				"/Engine/EngineMaterials/FlattenMaterial"
			]
		},
		{
			"ShaderMapHash": "F3A0F93A63DDC6F5E1D873DFD4CB0404562B0BC3",
			"Assets": [
				"/Engine/EngineMaterials/PhAT_JointLimitMaterial"
			]
		},
		{
			"ShaderMapHash": "DF1BF22ECF5BF0EFE210263C65A98E6FDE5195E1",
			"Assets": [
				"/Engine/VREditor/TransformGizmo/TransformGizmoMaterial"
			]
		},
		{
			"ShaderMapHash": "0D76944AB68A7459A264731115865E6C0E2EBDC7",
			"Assets": [
				"/Engine/EditorMaterials/WorldPartition/WorldPartitionSpatialHashGridPreviewMaterial"
			]
		},
		{
			"ShaderMapHash": "2B4D154941EEB6DB4E10FE086FADC26493D83200",
			"Assets": [
				"/Engine/EngineSky/VolumetricClouds/m_SimpleVolumetricCloud"
			]
		},
		{
			"ShaderMapHash": "A2CAE2D3C2C993E8B8AA37929C4E21EFE292D38C",
			"Assets": [
				"/Engine/EngineMaterials/DefaultPostProcessMaterial"
			]
		},
		{
			"ShaderMapHash": "E483A75441E6D48E8035CE99C6027DFE9F0BD4D3",
			"Assets": [
				"/Engine/EngineMaterials/DefaultDeferredDecalMaterial"
			]
		},
		{
			"ShaderMapHash": "62F43C6A79232642F26BEBEE0D9A0B2AEB5438C5",
			"Assets": [
				"/Engine/EngineMaterials/DefaultMaterial"
			]
		},
		{
			"ShaderMapHash": "03508B32E0E497BAB73F0A5E42DB648468BE7917",
			"Assets": [
				"/Engine/EngineMaterials/WorldGridMaterial"
			]
		},
		{
			"ShaderMapHash": "CA5E1A6F84EC20DA7A2E492BDC604AFFCFD43748",
			"Assets": [
				"/Engine/EngineMaterials/DefaultTextMaterialOpaque"
			]
		},
		{
			"ShaderMapHash": "579C95F0207C26BCADA89DB91CC0F40842B5A7B8",
			"Assets": [
				"/Interchange/Materials/PhongSurfaceMaterial"
			]
		},
		{
			"ShaderMapHash": "05D168923B30A1B25289298A647E1C2CF7F27B21",
			"Assets": [
				"/Engine/EngineMaterials/Widget3DPassThrough",
				"/Engine/EngineMaterials/Widget3DPassThrough_Translucent_OneSided"
			]
		},
		{
			"ShaderMapHash": "DE7EE9483A3EBC15FA3A337DA071E979C8EB2A42",
			"Assets": [
				"/Paper2D/OpaqueUnlitSpriteMaterial"
			]
		},
		{
			"ShaderMapHash": "334E1F1703618EC80D25927553096B0460475AA5",
			"Assets": [
				"/SpeedTreeImporter/SpeedTree9/SpeedTreeBillboardMaster"
			]
		},
		{
			"ShaderMapHash": "0F88DEFA0C8DB08A510BF43C2C5F9707BC3A922F",
			"Assets": [
				"/SpeedTreeImporter/SpeedTree9/SpeedTreeMaster"
			]
		},
		{
			"ShaderMapHash": "07EDD93415F991975DECF8D383B41FA551CFF1C0",
			"Assets": [
				"/Engine/EngineMaterials/PPM_DefaultCalibrationGrayscale"
			]
		},
		{
			"ShaderMapHash": "C9007AA0190B78D25AA51BA2867F2B3701B121C2",
			"Assets": [
				"/Engine/EngineMaterials/PPM_DefaultCalibrationColor"
			]
		},
		{
			"ShaderMapHash": "D75D57E5943564ED710EC00CA9323F46E652BA09",
			"Assets": [
				"/Engine/EditorMaterials/PreviewShadowIndicatorMaterial"
			]
		},
		{
			"ShaderMapHash": "696435786F9FA3D4C8AC5963CD32F5F7F74797B6",
			"Assets": [
				"/Engine/EngineMaterials/Widget3DPassThrough_Masked"
			]
		},
		{
			"ShaderMapHash": "5171010E2E3C83E38840E5A1E009586E38771094",
			"Assets": [
				"/Engine/EngineMaterials/Widget3DPassThrough_Opaque"
			]
		},
		{
			"ShaderMapHash": "60846630B9F55C3F2435A94D76718CA19D984436",
			"Assets": [
				"/Engine/EngineMaterials/Widget3DPassThrough_Translucent"
			]
		},
		{
			"ShaderMapHash": "0C512F48293746439F89C1AF50C36851114666DC",
			"Assets": [
				"/Engine/EngineMaterials/Widget3DPassThrough_Masked_OneSided"
			]
		},
		{
			"ShaderMapHash": "AA5DB7A4323D27B5C6CB7AC6CB765F7268051FC7",
			"Assets": [
				"/Interchange/Materials/LambertSurfaceMaterial"
			]
		},
		{
			"ShaderMapHash": "72C993E9D067BAA516044131888B83A40FB53F6D",
			"Assets": [
				"/Interchange/Materials/OrenNayerMaterial"
			]
		},
		{
			"ShaderMapHash": "FAB3E6F4379A67043595431673B631EE2BDA7BFE",
			"Assets": [
				"/Engine/EngineMaterials/Widget3DPassThrough_Opaque_OneSided"
			]
		},
		{
			"ShaderMapHash": "A79342CEA292680A873B1CB5217E042444D1FB51",
			"Assets": [
				"/Interchange/gltf/M_Unlit"
			]
		},
		{
			"ShaderMapHash": "1A25B7BC86947130F6F064629AB24FD1B98EF0BE",
			"Assets": [
				"/Interchange/Materials/ThinTranslucentMaterial"
			]
		},
		{
			"ShaderMapHash": "8B25C4C1DAFAAA6B9093770E691552B388508392",
			"Assets": [
				"/Interchange/Materials/SheenMaterial"
			]
		},
		{
			"ShaderMapHash": "4CD3B793DDA0159AEE3D377B6E6B8A7109486A38",
			"Assets": [
				"/Interchange/Materials/ClearCoatMaterial"
			]
		},
		{
			"ShaderMapHash": "D6E270E5B1777BA30BD81D78B0E4E20E4247BC8A",
			"Assets": [
				"/Interchange/gltf/M_Transmission"
			]
		},
		{
			"ShaderMapHash": "BCD777A3F8BE3D302C0AFD6F7FB62ADCD7AB3A1F",
			"Assets": [
				"/Interchange/gltf/M_Opaque"
			]
		},
		{
			"ShaderMapHash": "497FB740F13089DF1B21CD5BA9DA20A9D5643175",
			"Assets": [
				"/Interchange/gltf/MaterialInstances_SG/MI_Transmission_TS"
			]
		},
		{
			"ShaderMapHash": "0DACFE11F72BA88CB90604A629BA452B8F8EBE2B",
			"Assets": [
				"/Interchange/gltf/MaterialInstances_SG/MI_Opaque_TS"
			]
		},
		{
			"ShaderMapHash": "D0118477CBA2FDCA6752760324568B4304FED28C",
			"Assets": [
				"/Interchange/gltf/MaterialInstances_SG/MI_Opaque"
			]
		},
		{
			"ShaderMapHash": "EF58B4151996AB4312A1CD45250CBEFEF126A3F2",
			"Assets": [
				"/Interchange/gltf/MaterialInstances_MR/MI_Translucent_ClearCoat_TS"
			]
		},
		{
			"ShaderMapHash": "B3F084BE14E58CB4569F69BDE999C030F703CC8B",
			"Assets": [
				"/Interchange/gltf/MaterialInstances_MR/MI_Translucent_ClearCoat"
			]
		},
		{
			"ShaderMapHash": "0BC5EE624123260D78B7B6C29EE85787C1DC7D17",
			"Assets": [
				"/Interchange/gltf/M_Sheen"
			]
		},
		{
			"ShaderMapHash": "3AE6A89681D2B6CF1529F94E27EEAD05878015EA",
			"Assets": [
				"/Interchange/gltf/M_Translucent"
			]
		},
		{
			"ShaderMapHash": "E9CD711D999B601EA75E8487BE8A560C129B555F",
			"Assets": [
				"/Interchange/gltf/MaterialInstances_MR/MI_Opaque_Unlit_TS"
			]
		},
		{
			"ShaderMapHash": "516EAF4A4D5CDB7CD1CC18E568B6F949A8811631",
			"Assets": [
				"/Interchange/Materials/SubsurfaceMaterial"
			]
		},
		{
			"ShaderMapHash": "2255DB1A9D1795DC92A2ADE53B0CDD1E6BE8E1F2",
			"Assets": [
				"/Interchange/Materials/PBRSurfaceMaterial"
			]
		},
		{
			"ShaderMapHash": "67DDFE2EC86C278FA90F6DAF2947D428C247ECA0",
			"Assets": [
				"/Interchange/gltf/MaterialInstances_SG/MI_Transmission"
			]
		},
		{
			"ShaderMapHash": "307CD41354989D3DE6F809303254862D26076E27",
			"Assets": [
				"/Interchange/gltf/MaterialInstances_MR/MI_Transmission_TS"
			]
		},
		{
			"ShaderMapHash": "5E8E4FDF56E2065F285B6CC3E8024DF1A930C3C8",
			"Assets": [
				"/Interchange/gltf/MaterialInstances_SG/MI_Opaque_Sheen_TS"
			]
		},
		{
			"ShaderMapHash": "0107CC54374954D998CD6242EA01C09D07B1D7B9",
			"Assets": [
				"/Interchange/gltf/MaterialInstances_SG/MI_Opaque_Sheen"
			]
		},
		{
			"ShaderMapHash": "7B9701FEF494E37C5670FD2AABBD91D98DAE0363",
			"Assets": [
				"/Interchange/gltf/MaterialInstances_MR/MI_Opaque_Sheen_TS"
			]
		},
		{
			"ShaderMapHash": "A07B4CD6A2D2B0AF78E412FB532DCA3F5079968D",
			"Assets": [
				"/Interchange/gltf/MaterialInstances_SG/MI_Translucent_TS"
			]
		},
		{
			"ShaderMapHash": "C44F924CE7C65002CDEF12B517151396F0F58DD8",
			"Assets": [
				"/Interchange/gltf/MaterialInstances_SG/MI_Translucent_ClearCoat_TS"
			]
		},
		{
			"ShaderMapHash": "A31F559106695EDDE19FE5D72B793408A9FD38F1",
			"Assets": [
				"/Interchange/gltf/MaterialInstances_SG/MI_Translucent_ClearCoat"
			]
		},
		{
			"ShaderMapHash": "FA17CFF5FCAFD297149CFF09046979EE5E8377A5",
			"Assets": [
				"/Interchange/gltf/MaterialInstances_MR/MI_Translucent_TS"
			]
		},
		{
			"ShaderMapHash": "65C6C50A97B2EB816E5795ECAEC6AC4A86E52399",
			"Assets": [
				"/Interchange/gltf/MaterialInstances_SG/MI_Translucent"
			]
		},
		{
			"ShaderMapHash": "F852AEF7CAAC86E2CAEA05AA83CB5C414BEC6D57",
			"Assets": [
				"/Interchange/gltf/MaterialInstances_MR/MI_Opaque_TS"
			]
		},
		{
			"ShaderMapHash": "8BDC1C1EF489D1ACE751E726076A8DA37EFB6F51",
			"Assets": [
				"/Interchange/gltf/MaterialInstances_SG/MI_Opaque_ClearCoat_TS"
			]
		},
		{
			"ShaderMapHash": "94511CC036E58DF2BF0C35916D28156F53FEDB8A",
			"Assets": [
				"/Interchange/gltf/MaterialInstances_MR/MI_Opaque_ClearCoat_TS"
			]
		},
		{
			"ShaderMapHash": "3DB51B9980265AB7BDA52D068AFD3EC04BD02E22",
			"Assets": [
				"/Interchange/gltf/MaterialInstances_SG/MI_Opaque_ClearCoat"
			]
		},
		{
			"ShaderMapHash": "5A9F31D38E2E99D979575CBA9EE64DD955A76259",
			"Assets": [
				"/Interchange/gltf/MaterialInstances_MR/MI_Opaque_ClearCoat"
			]
		}
	]
}