{
	"AssetInfoVersion": 2,
	"ShaderCodeToAssets": [
		{
			"ShaderMapHash": "7DAF01793C0456BB8E6FC5DA778BB1A5FCD04D61",
			"Assets": [
				"/ControlRig/Controls/ControlRigGizmoMaterial"
			]
		},
		{
			"ShaderMapHash": "1EFAF36BE13B7F8D7EDD410DD8152D7CDB1ABE20",
			"Assets": [
				"/Engine/EngineDebugMaterials/DebugEditorMaterial"
			]
		},
		{
			"ShaderMapHash": "191A368D1C79B25350AF6168BC387E8C85A9116D",
			"Assets": [
				"/MeshModelingToolset/Materials/M_DynamicMeshComponentVtxColor"
			]
		},
		{
			"ShaderMapHash": "C49CA9D8876B2C98B36647D16F8D223F190E5E05",
			"Assets": [
				"/Engine/EngineMaterials/GizmoMaterial"
			]
		},
		{
			"ShaderMapHash": "BF518489A6CB0A3211CCD9E885E154F3E7BB6E56",
			"Assets": [
				"/ControlRig/Controls/ControlRigXRayMaterial"
			]
		},
		{
			"ShaderMapHash": "CE2BBD7C45334B2C75861AED0947F294191DFCDB",
			"Assets": [
				"/Engine/EngineDebugMaterials/M_SimpleUnlitTranslucent"
			]
		},
		{
			"ShaderMapHash": "8094E55A8B8CCB35B93DB93D412B4718BCBDF8BC",
			"Assets": [
				"/Engine/EditorMaterials/Camera/CineMat"
			]
		},
		{
			"ShaderMapHash": "51A708CD1D07FCE5C44DFC190AEE4F6B2B6872A1",
			"Assets": [
				"/Interchange/Materials/UnlitMaterial",
				"/Engine/EngineMaterials/RemoveSurfaceMaterial"
			]
		},
		{
			"ShaderMapHash": "A362E4C17DC0C79DC7555697EF1B3C0B424D4842",
			"Assets": [
				"/Engine/EditorMaterials/PhAT_NoCollisionMaterial"
			]
		},
		{
			"ShaderMapHash": "7F575111C7AA3E417782758AA698A9E4C092B99F",
			"Assets": [
				"/Engine/EditorMaterials/PhAT_UnselectedMaterial"
			]
		},
		{
			"ShaderMapHash": "138EE6EEA75CEA203CD1D689522BFA48BFAB8D9B",
			"Assets": [
				"/Engine/EngineDebugMaterials/DebugMeshMaterial"
			]
		},
		{
			"ShaderMapHash": "366D84C84A3388CABF606BC793015AFCCAEEA604",
			"Assets": [
				"/Engine/EditorLandscapeResources/SplineEditorMeshMat"
			]
		},
		{
			"ShaderMapHash": "41AD7ADEBF87F1381DEA28B21D4A6A59BB38313A",
			"Assets": [
				"/Engine/VREditor/TransformGizmo/Xray"
			]
		},
		{
			"ShaderMapHash": "F42E14F3AEFC7FB664415EF1E19BE2DECFF3BB97",
			"Assets": [
				"/Engine/VREditor/TransformGizmo/Main"
			]
		},
		{
			"ShaderMapHash": "A2A98E687009E743D9E833829707597BDF109865",
			"Assets": [
				"/Engine/VREditor/TransformGizmo/TranslucentTransformGizmoMaterial"
			]
		},
		{
			"ShaderMapHash": "23B574C154BFF5D84683E7B44C80AE1162A6FCAA",
			"Assets": [
				"/Engine/EngineMaterials/DefaultLightFunctionMaterial"
			]
		},
		{
			"ShaderMapHash": "870AAA65EC7B4F8A8311CE1C7268029BD170ADE5",
			"Assets": [
				"/Engine/EngineMaterials/FlattenMaterial_WS_Normal_VT"
			]
		},
		{
			"ShaderMapHash": "FD227BB197E02C484FE31C2D12987F0423BE3EE4",
			"Assets": [
				"/Engine/EngineMaterials/M_InvalidLightmapSettings"
			]
		},
		{
			"ShaderMapHash": "F2762A98381AAFEC76DE1A6929300F1DA453CB7E",
			"Assets": [
				"/Engine/EngineMaterials/EmissiveMeshMaterial"
			]
		},
		{
			"ShaderMapHash": "20932FF69A9972B1E6ADCE521738523CBE96BC20",
			"Assets": [
				"/ControlRig/M_Manip"
			]
		},
		{
			"ShaderMapHash": "743B56325109B954EC97CFB078ACF42B04260603",
			"Assets": [
				"/Paper2D/DefaultSpriteMaterial"
			]
		},
		{
			"ShaderMapHash": "7457487401EF1380C5519588EAEC0B40861EB688",
			"Assets": [
				"/Engine/EngineDebugMaterials/M_VolumeRenderSphereTracePP"
			]
		},
		{
			"ShaderMapHash": "38949598446BE43268DA722849243DCEF7AF9347",
			"Assets": [
				"/Engine/EngineMaterials/FlattenMaterial_VT",
				"/Engine/EngineMaterials/FlattenMaterial"
			]
		},
		{
			"ShaderMapHash": "E5A7BB73BA8B8AD0D640F86EE634E28F85F6E1F5",
			"Assets": [
				"/Engine/EngineMaterials/PhAT_JointLimitMaterial"
			]
		},
		{
			"ShaderMapHash": "5CF243C23634A9D8F5923CF2D3916E7CF86A74DF",
			"Assets": [
				"/Engine/VREditor/TransformGizmo/TransformGizmoMaterial"
			]
		},
		{
			"ShaderMapHash": "D596678774B4A0C5A802822503E4CC67866FD407",
			"Assets": [
				"/Engine/EditorMaterials/WorldPartition/WorldPartitionSpatialHashGridPreviewMaterial"
			]
		},
		{
			"ShaderMapHash": "1D6616FFE941136E042044E575B529909E3D3007",
			"Assets": [
				"/Engine/EngineSky/VolumetricClouds/m_SimpleVolumetricCloud"
			]
		},
		{
			"ShaderMapHash": "CC62DC5EA46AFCD51B4981EE8FE47BA6E3294A45",
			"Assets": [
				"/Engine/EngineMaterials/DefaultPostProcessMaterial"
			]
		},
		{
			"ShaderMapHash": "0105E2A9F4BFE8DAE5C9F5B520D186686A797E66",
			"Assets": [
				"/Engine/EngineMaterials/DefaultDeferredDecalMaterial"
			]
		},
		{
			"ShaderMapHash": "3BBC4507F905E55934B3D4DE1D9E957491E6A0B4",
			"Assets": [
				"/Engine/EngineMaterials/DefaultMaterial"
			]
		},
		{
			"ShaderMapHash": "62E4D3D1D7A27E09E644C75F50DCD17A6BAAEE9B",
			"Assets": [
				"/Engine/EngineMaterials/WorldGridMaterial"
			]
		},
		{
			"ShaderMapHash": "30BA37794BE71F09030CE96DDFE9BE78955A03A2",
			"Assets": [
				"/Engine/EngineMaterials/DefaultTextMaterialOpaque"
			]
		},
		{
			"ShaderMapHash": "A8154295A8CCADBD50F6010C9380993A9A26A1DF",
			"Assets": [
				"/Interchange/Materials/PhongSurfaceMaterial"
			]
		},
		{
			"ShaderMapHash": "E60B6342802FA9FB859C95A030ACF7645E090F72",
			"Assets": [
				"/Engine/EngineMaterials/Widget3DPassThrough",
				"/Engine/EngineMaterials/Widget3DPassThrough_Translucent_OneSided"
			]
		},
		{
			"ShaderMapHash": "192C29AF400BDEB0FADFC7696029976A28C71877",
			"Assets": [
				"/Paper2D/OpaqueUnlitSpriteMaterial"
			]
		},
		{
			"ShaderMapHash": "CCD286D040012B0A18D315D54267493AD278AE2E",
			"Assets": [
				"/SpeedTreeImporter/SpeedTree9/SpeedTreeBillboardMaster"
			]
		},
		{
			"ShaderMapHash": "3886C6CC666B5EFCCBB57C9DE29308ADFAD6D1C2",
			"Assets": [
				"/SpeedTreeImporter/SpeedTree9/SpeedTreeMaster"
			]
		},
		{
			"ShaderMapHash": "85E7D862564E6DBBBAF6AF78998965AFFA044EDF",
			"Assets": [
				"/Engine/EngineMaterials/PPM_DefaultCalibrationGrayscale"
			]
		},
		{
			"ShaderMapHash": "4AAC5998E0D754804BACEC3855282D918BF08DE8",
			"Assets": [
				"/Engine/EngineMaterials/PPM_DefaultCalibrationColor"
			]
		},
		{
			"ShaderMapHash": "CCCAC217B7135DC1712C5974EBE16F309B2ACE8C",
			"Assets": [
				"/Engine/EditorMaterials/PreviewShadowIndicatorMaterial"
			]
		},
		{
			"ShaderMapHash": "89C419DFE0D5225BC056BED644B8434C081EC9C9",
			"Assets": [
				"/Engine/EngineMaterials/Widget3DPassThrough_Masked"
			]
		},
		{
			"ShaderMapHash": "54DB0A6D56FAB55BA22ECA2290E6563C7E0909EB",
			"Assets": [
				"/Engine/EngineMaterials/Widget3DPassThrough_Opaque"
			]
		},
		{
			"ShaderMapHash": "1678C3AF2378A0992574DE49A790871FA27C7490",
			"Assets": [
				"/Engine/EngineMaterials/Widget3DPassThrough_Translucent"
			]
		},
		{
			"ShaderMapHash": "2C8677E342DFD0BBC26FBF3F27178A0C0A2582B9",
			"Assets": [
				"/Engine/EngineMaterials/Widget3DPassThrough_Masked_OneSided"
			]
		},
		{
			"ShaderMapHash": "54DD3768AEC68A3E25CBF4D08B128F511A861B38",
			"Assets": [
				"/Interchange/Materials/LambertSurfaceMaterial"
			]
		},
		{
			"ShaderMapHash": "A8367273EA1F00215377F6A538E841B482B180B4",
			"Assets": [
				"/Interchange/Materials/OrenNayerMaterial"
			]
		},
		{
			"ShaderMapHash": "C7B2623B9841103310B9457DF9C73EF345165B54",
			"Assets": [
				"/Engine/EngineMaterials/Widget3DPassThrough_Opaque_OneSided"
			]
		},
		{
			"ShaderMapHash": "88ECB83995BAC74B6E331748753BCB03E66DBB4D",
			"Assets": [
				"/Interchange/gltf/M_Unlit"
			]
		},
		{
			"ShaderMapHash": "11FC126C9160A9F74CC2069D13E51DC30DF3E0F2",
			"Assets": [
				"/Interchange/Materials/ThinTranslucentMaterial"
			]
		},
		{
			"ShaderMapHash": "39C11C618F494013D9DF2511ED77BACA5B853E9A",
			"Assets": [
				"/Interchange/Materials/SheenMaterial"
			]
		},
		{
			"ShaderMapHash": "81000E655F7B5F48135DD9F784C4C677F2DF749D",
			"Assets": [
				"/Interchange/Materials/ClearCoatMaterial"
			]
		},
		{
			"ShaderMapHash": "FF83697C6F5619352B169CD9DA710BEF01ECE0BA",
			"Assets": [
				"/Interchange/gltf/M_Transmission"
			]
		},
		{
			"ShaderMapHash": "9B270764B6D64F20B3284E7614EBD91B3CA36B17",
			"Assets": [
				"/Interchange/gltf/M_Opaque"
			]
		},
		{
			"ShaderMapHash": "069364F8121D1C003DCA3CDE55383B83025F323E",
			"Assets": [
				"/Interchange/gltf/MaterialInstances_SG/MI_Transmission_TS"
			]
		},
		{
			"ShaderMapHash": "AA013174199956FC372BFAD6C1520CA7B1E80B94",
			"Assets": [
				"/Interchange/gltf/MaterialInstances_SG/MI_Opaque_TS"
			]
		},
		{
			"ShaderMapHash": "EC91F2DC67B0AF6000E83181F8389F9E4E5001D8",
			"Assets": [
				"/Interchange/gltf/MaterialInstances_SG/MI_Opaque"
			]
		},
		{
			"ShaderMapHash": "32123420883382D951D2B4CA7B504D7378ADB81B",
			"Assets": [
				"/Interchange/gltf/MaterialInstances_MR/MI_Translucent_ClearCoat_TS"
			]
		},
		{
			"ShaderMapHash": "C3EE3A1FD994E47AC43C0AF0D1C4165F0138A19B",
			"Assets": [
				"/Interchange/gltf/MaterialInstances_MR/MI_Translucent_ClearCoat"
			]
		},
		{
			"ShaderMapHash": "191EFAA8E6ED856EF004830C7ECB9D04973806A6",
			"Assets": [
				"/Interchange/gltf/M_Sheen"
			]
		},
		{
			"ShaderMapHash": "5E6138428919D151392CB71FCCF335F96C3A38B3",
			"Assets": [
				"/Interchange/gltf/M_Translucent"
			]
		},
		{
			"ShaderMapHash": "7F7C3502594566EE3A87BD15BE2170EEEF150F59",
			"Assets": [
				"/Interchange/gltf/MaterialInstances_MR/MI_Opaque_Unlit_TS"
			]
		},
		{
			"ShaderMapHash": "A996073AB8921B1226B21A30334ED3CBFAC0CFBC",
			"Assets": [
				"/Interchange/Materials/SubsurfaceMaterial"
			]
		},
		{
			"ShaderMapHash": "C874A5079DBF0A1762E9D2E63AA73289094DCF24",
			"Assets": [
				"/Interchange/Materials/PBRSurfaceMaterial"
			]
		},
		{
			"ShaderMapHash": "05ADFC39DCC27BEE1D1C37AAD2B8DE48D0C2E4D1",
			"Assets": [
				"/Interchange/gltf/MaterialInstances_SG/MI_Transmission"
			]
		},
		{
			"ShaderMapHash": "C44AE2FBC62B1A449AEAD6135E74DB36C14518A1",
			"Assets": [
				"/Interchange/gltf/MaterialInstances_MR/MI_Transmission_TS"
			]
		},
		{
			"ShaderMapHash": "AB375D474E750ECA8651D81E6C14880538A0B091",
			"Assets": [
				"/Interchange/gltf/MaterialInstances_SG/MI_Opaque_Sheen_TS"
			]
		},
		{
			"ShaderMapHash": "1CE6E3923194A9DFA067C7C246FD3AB756D8395C",
			"Assets": [
				"/Interchange/gltf/MaterialInstances_SG/MI_Opaque_Sheen"
			]
		},
		{
			"ShaderMapHash": "B2FAB49343CAE1620CBA6CAD9961D15AA532969A",
			"Assets": [
				"/Interchange/gltf/MaterialInstances_MR/MI_Opaque_Sheen_TS"
			]
		},
		{
			"ShaderMapHash": "4FAB1C78DEBF9136DA3F11927FBCAD2AACF260E1",
			"Assets": [
				"/Interchange/gltf/MaterialInstances_SG/MI_Translucent_TS"
			]
		},
		{
			"ShaderMapHash": "9E8A0EDD9660D8835FCFD38EF64F5635A0C97C64",
			"Assets": [
				"/Interchange/gltf/MaterialInstances_SG/MI_Translucent_ClearCoat_TS"
			]
		},
		{
			"ShaderMapHash": "B77F2C5F331AF44008BF42E03FC6FF52334DB265",
			"Assets": [
				"/Interchange/gltf/MaterialInstances_SG/MI_Translucent_ClearCoat"
			]
		},
		{
			"ShaderMapHash": "A8C85100BC50E315909620390563C5D78A961A27",
			"Assets": [
				"/Interchange/gltf/MaterialInstances_MR/MI_Translucent_TS"
			]
		},
		{
			"ShaderMapHash": "02FA7EA952FAE5600FD0ADB58C1FB62B23AD0279",
			"Assets": [
				"/Interchange/gltf/MaterialInstances_SG/MI_Translucent"
			]
		},
		{
			"ShaderMapHash": "4948D047A8D597875862961188870F47ECFB1341",
			"Assets": [
				"/Interchange/gltf/MaterialInstances_MR/MI_Opaque_TS"
			]
		},
		{
			"ShaderMapHash": "8F3E4C85654B1AC31892B7670EF9249993677A53",
			"Assets": [
				"/Interchange/gltf/MaterialInstances_SG/MI_Opaque_ClearCoat_TS"
			]
		},
		{
			"ShaderMapHash": "41A06380C3998BDA0A34096999795C0E447C622C",
			"Assets": [
				"/Interchange/gltf/MaterialInstances_MR/MI_Opaque_ClearCoat_TS"
			]
		},
		{
			"ShaderMapHash": "45DAA35EAA921F6BFCB3493ABB53B478EA967A7C",
			"Assets": [
				"/Interchange/gltf/MaterialInstances_SG/MI_Opaque_ClearCoat"
			]
		},
		{
			"ShaderMapHash": "E16C2E372C527FA196030426EE88A654628BA607",
			"Assets": [
				"/Interchange/gltf/MaterialInstances_MR/MI_Opaque_ClearCoat"
			]
		}
	]
}